<?xml version="1.0" encoding="utf-8"?>
<!-- Generator: Adobe Illustrator 18.0.0, SVG Export Plug-In . SVG Version: 6.00 Build 0)  -->
<!DOCTYPE svg PUBLIC "-//W3C//DTD SVG 1.1//EN" "http://www.w3.org/Graphics/SVG/1.1/DTD/svg11.dtd">
<svg version="1.1" id="Layer_1" xmlns="http://www.w3.org/2000/svg" xmlns:xlink="http://www.w3.org/1999/xlink" x="0px" y="0px"
	 viewBox="0 0 132.7 123.9" enable-background="new 0 0 132.7 123.9" xml:space="preserve">
<g id="XMLID_2680_">
</g>
<g>
	<path stroke="#FFFFFF" stroke-miterlimit="10" d="M93.2,110.3c-1.2-0.3-2.4,0.4-2.7,1.6l-2.2,8.8c-0.3,1.2,0.4,2.4,1.6,2.7
		c0.2,0,0.4,0.1,0.5,0.1c1,0,1.9-0.7,2.1-1.7l2.2-8.8C95.1,111.8,94.4,110.6,93.2,110.3z"/>
	<path stroke="#FFFFFF" stroke-miterlimit="10" d="M92.5,88.8c-0.5-1.1-1.8-1.5-2.9-1c-4.2,2.1-11.1,4.5-21,4.8V72.9
		c0-1.2-1-2.2-2.2-2.2c-1.2,0-2.2,1-2.2,2.2v19.7c-27.3-0.9-36.1-17.4-37.3-20.1V50.2l38.7,16c0.3,0.1,0.6,0.2,0.8,0.2
		c0.3,0,0.6-0.1,0.8-0.2l24.1-10c1.1-0.5,1.7-1.7,1.2-2.9c-0.5-1.1-1.8-1.6-2.9-1.2l-23.3,9.6L4.9,36.4v-0.7c0-1.2-1-2.2-2.2-2.2
		s-2.2,1-2.2,2.2v2.2c0,0.9,0.5,1.7,1.4,2l20.6,8.5c0,0,0,0.1,0,0.1v24.5c0,0.3,0.1,0.6,0.2,0.8c0.4,1,9.7,23.3,43.7,23.3
		c11.9,0,20.2-2.9,25.1-5.3C92.6,91.2,93,89.9,92.5,88.8z"/>
	<path stroke="#FFFFFF" stroke-miterlimit="10" d="M99.3,112.5c-1.2,0-2.2,1-2.2,2.2v6.6c0,1.2,1,2.2,2.2,2.2s2.2-1,2.2-2.2v-6.6
		C101.5,113.4,100.5,112.5,99.3,112.5z"/>
	<path stroke="#FFFFFF" stroke-miterlimit="10" d="M130,33.4c-1.2,0-2.2,1-2.2,2.2v0.7l-26.3,10.8v-4l29.4-12.2
		c0.8-0.3,1.4-1.1,1.4-2c0-0.9-0.5-1.7-1.4-2L67.2,0.7c-0.5-0.2-1.1-0.2-1.7,0L1.9,27c-0.8,0.3-1.4,1.1-1.4,2c0,0.9,0.5,1.7,1.4,2
		l63.7,26.3c0.3,0.1,0.6,0.2,0.8,0.2c0.3,0,0.6-0.1,0.8-0.2l23-9.5c1.1-0.5,1.7-1.7,1.2-2.9c-0.5-1.1-1.7-1.6-2.9-1.2L66.4,53
		L8.4,29l57.9-24l57.9,24L99.1,39.5l-24.1-9c0.1-0.5,0.2-0.9,0.2-1.4c0-3.7-3.9-6.6-8.8-6.6s-8.8,2.9-8.8,6.6c0,3.7,3.9,6.6,8.8,6.6
		c2.2,0,4.2-0.6,5.7-1.6l25.1,9.4v7v0v47c-2.5,0.9-4.4,3.3-4.4,6.2c0,3.6,3,6.6,6.6,6.6c3.6,0,6.6-3,6.6-6.6c0-2.9-1.8-5.3-4.4-6.2
		V85c6.3-4.8,8.6-11.1,8.7-11.4c0.1-0.2,0.1-0.5,0.1-0.7V48.5c0,0,0-0.1,0-0.1l20.6-8.5c0.8-0.3,1.4-1.1,1.4-2v-2.2
		C132.2,34.4,131.2,33.4,130,33.4z M66.4,31.2c-2.7,0-4.4-1.3-4.4-2.2c0-0.9,1.7-2.2,4.4-2.2c2.7,0,4.4,1.3,4.4,2.2
		C70.7,29.9,69,31.2,66.4,31.2z M99.3,105.9c-1.2,0-2.2-1-2.2-2.2s1-2.2,2.2-2.2c1.2,0,2.2,1,2.2,2.2
		C101.5,104.9,100.5,105.9,99.3,105.9z M105.9,72.5c-0.4,0.9-1.7,3.8-4.4,6.6V51.9l4.4-1.8V72.5z"/>
	<path stroke="#FFFFFF" stroke-miterlimit="10" d="M108,111.9c-0.3-1.2-1.5-1.9-2.7-1.6c-1.2,0.3-1.9,1.5-1.6,2.7l2.2,8.8
		c0.3,1,1.1,1.7,2.1,1.7c0.2,0,0.4,0,0.5-0.1c1.2-0.3,1.9-1.5,1.6-2.7L108,111.9z"/>
</g>
</svg>
